{
    "status": {
        "timestamp": "2019-06-24T16:49:17.056Z",
        "error_code": 0,
        "error_message": null,
        "elapsed": 6,
        "credit_count": 1
    },
    "data": {
        "1": {
            "id": 1,
            "name": "Bitcoin",
            "symbol": "BTC",
            "slug": "bitcoin",
            "circulating_supply": 17712175,
            "total_supply": 17712175,
            "max_supply": 21000000,
            "date_added": "2013-04-28T00:00:00.000Z",
            "num_market_pairs": 7529,
            "tags": [
                "mineable"
            ],
            "platform": null,
            "cmc_rank": 1,
            "last_updated": "2019-05-20T19:34:40.000Z",
            "quote": {
                "USD": {
                    "price": 7818.40729118,
                    "volume_24h": 23516189174.9948,
                    "percent_change_1h": 0.564278,
                    "percent_change_24h": -2.16524,
                    "percent_change_7d": 0.328395,
                    "market_cap": 138480998162.65613,
                    "last_updated": "2019-05-20T19:34:40.000Z"
                }
            }
        },
        "2": {
            "id": 2,
            "name": "Litecoin",
            "symbol": "LTC",
            "slug": "litecoin",
            "circulating_supply": 61858851.4372513,
            "total_supply": 61858851.4372513,
            "max_supply": 84000000,
            "date_added": "2013-04-28T00:00:00.000Z",
            "num_market_pairs": 561,
            "tags": [
                "mineable"
            ],
            "platform": null,
            "cmc_rank": 6,
            "last_updated": "2019-05-20T19:34:03.000Z",
            "quote": {
                "USD": {
                    "price": 90.1211227891,
                    "volume_24h": 3450832588.84501,
                    "percent_change_1h": 0.388983,
                    "percent_change_24h": -4.90452,
                    "percent_change_7d": 0.661466,
                    "market_cap": 5574789145.969219,
                    "last_updated": "2019-05-20T19:34:03.000Z"
                }
            }
        },
        "3": {
            "id": 3,
            "name": "Namecoin",
            "symbol": "NMC",
            "slug": "namecoin",
            "circulating_supply": 14736400,
            "total_supply": 14736400,
            "max_supply": null,
            "date_added": "2013-04-28T00:00:00.000Z",
            "num_market_pairs": 8,
            "tags": [
                "mineable"
            ],
            "platform": null,
            "cmc_rank": 369,
            "last_updated": "2019-05-20T19:34:01.000Z",
            "quote": {
                "USD": {
                    "price": 0.559211962409,
                    "volume_24h": 8619.79100339681,
                    "percent_change_1h": 1.35257,
                    "percent_change_24h": -12.0114,
                    "percent_change_7d": 19.351,
                    "market_cap": 8240771.162843987,
                    "last_updated": "2019-05-20T19:34:01.000Z"
                }
            }
        }
    }
}
